<?xml version="1.0" standalone="no"?>
<!DOCTYPE svg PUBLIC "-//W3C//DTD SVG 20010904//EN"
 "http://www.w3.org/TR/2001/REC-SVG-20010904/DTD/svg10.dtd">
<svg version="1.0" xmlns="http://www.w3.org/2000/svg"
 width="260.000000pt" height="260.000000pt" viewBox="0 0 260.000000 260.000000"
 preserveAspectRatio="xMidYMid meet">
<metadata>
Created by potrace 1.14, written by Peter Selinger 2001-2017
</metadata>
<g transform="translate(0.000000,260.000000) scale(0.100000,-0.100000)"
fill="#000000" stroke="none">
<path d="M235 2513 c-12 -11 -14 -28 -10 -67 3 -28 8 -89 11 -136 3 -47 7
-101 9 -120 6 -65 16 -195 20 -255 5 -76 13 -173 21 -250 6 -62 8 -88 18 -235
4 -47 8 -107 11 -135 3 -27 7 -86 10 -130 3 -44 7 -100 9 -125 5 -42 8 -84 21
-245 9 -112 16 -200 20 -250 2 -27 7 -86 10 -130 7 -89 13 -101 59 -114 17 -5
164 -55 326 -110 162 -56 348 -120 413 -142 l118 -39 217 74 c119 41 246 84
282 96 36 12 72 24 80 27 8 3 20 7 25 9 59 16 283 98 292 107 6 7 14 48 18 92
3 44 8 103 10 130 3 28 7 79 9 115 3 36 8 97 11 135 3 39 8 93 10 120 2 28 6
88 10 135 7 86 8 100 19 245 4 44 9 103 12 130 2 28 7 82 9 120 3 39 7 99 11
135 3 36 7 90 9 120 4 54 9 114 20 255 3 39 8 96 10 128 12 144 15 186 21 238
9 96 117 88 -1076 88 -930 0 -1052 -2 -1065 -16z"/>
</g>
</svg>
